Quick Start · FreeBird.jl
…
mc = MCRandomWalkClone()

MCRandomWalkClone()
The MCRandomWalkClone type is a type of Monte Carlo move that indicates a new walker is created by cloning an existing walker and then decorrelate the positions of the particles.
We also need to specify how we want to save the data and the output:

save = SaveEveryN(n_traj=10, n_snap=20_00)

SaveEveryN("output_df.csv", "output.traj.extxyz", "output.ls.extxyz", 10, 2000)
The SaveEveryN type is a struct that holds the parameters of the saving routine.
Now, we are ready to run the nested sampling simulation:

energies, liveset, _ = nested_sampling_loop!(ls, ns_params, 20_000, mc, save)

(20000×2 DataFrame
   Row │ iter   emax
       │ Int64  Float64
───────┼──────────────────────
     1 │     1      6.73195e6
     2 │     2  50132.7
     3 │     3   5644.83
     4 │     4   2213.17
     5 │     5    529.502
     6 │     6    173.716
     7 │     7     82.2592
     8 │     8     46.7644
   ⋮   │   ⋮          ⋮
 19994 │ 19994     -1.26974
 19995 │ 19995     -1.26974
 19996 │ 19996     -1.26974
 19997 │ 19997     -1.26974
 19998 │ 19998     -1.26974
 19999 │ 19999     -1.26974
 20000 │ 20000     -1.26974
            19985 rows omitted, LJAtomWalkers(AtomWalker{1}, LJParameters):
…
