Tutorials · FreeBird.jl
…
mc = MCRandomWalkClone()

MCRandomWalkClone([1, 2, 3])
The MCRandomWalkClone type is a type of Monte Carlo move that indicates a new walker is created by cloning an existing walker and then decorrelate the positions of the particles.
We also need to specify how we want to save the data and the output:

save = SaveEveryN(n_traj=10, n_snap=20_000)

SaveEveryN("output_df.csv", "output.traj.extxyz", "output.ls.extxyz", 10, 20000, 1)
The SaveEveryN type is a struct that holds the parameters of the saving routine.
Now, we are ready to run the nested sampling simulation:

energies, liveset, _ = nested_sampling(ls, ns_params, 20_000, mc, save)

(20000×2 DataFrame
   Row │ iter   emax
       │ Int64  Float64
───────┼──────────────────────
     1 │     1      4.42386e9
     2 │     2  80532.0
     3 │     3  25673.1
     4 │     4   1621.21
     5 │     5    860.51
     6 │     6    662.385
     7 │     7    463.343
     8 │     8     84.4737
   ⋮   │   ⋮          ⋮
 19994 │ 19994     -1.26974
 19995 │ 19995     -1.26974
 19996 │ 19996     -1.26974
 19997 │ 19997     -1.26974
 19998 │ 19998     -1.26974
 19999 │ 19999     -1.26974
 20000 │ 20000     -1.26974
            19985 rows omitted, LJAtomWalkers(AtomWalker{1}, LJParameters):
…
Now, let's define a Hamiltonian for the lattice system:

ham = GenericLatticeHamiltonian(-0.04, [-0.01, -0.0025], u"eV")

GenericLatticeHamiltonian{2,Quantity{Float64, 𝐋^2 𝐌 𝐓^-2, Unitful.FreeUnits{(eV,), 𝐋^2 𝐌 𝐓^-2, nothing}}}:
    on_site_interaction:      -0.04 eV
    nth_neighbor_interactions: [-0.01, -0.0025] eV

The GenericLatticeHamiltonian type is a struct that holds the parameters of the Hamiltonian. The first argument is the on-site energy, and the second argument is the list of n-th nearest-neighbors energy. The third argument is the unit of the energy.
To run exact enumeration, we only need a initial walker/lattice configuration, and the Hamiltonian. Let's run the exact enumeration:

df, ls = exact_enumeration(sl, ham)

(1820×2 DataFrame
  Row │ energy      config
      │ Quantity…   Array…
──────┼───────────────────────────────────────────────
    1 │    -0.2 eV  Vector{Bool}[[1, 1, 1, 1, 0, 0, …
    2 │ -0.1925 eV  Vector{Bool}[[1, 1, 1, 0, 1, 0, …
    3 │  -0.195 eV  Vector{Bool}[[1, 1, 1, 0, 0, 1, …
    4 │ -0.1925 eV  Vector{Bool}[[1, 1, 1, 0, 0, 0, …
    5 │  -0.185 eV  Vector{Bool}[[1, 1, 1, 0, 0, 0, …
    6 │   -0.18 eV  Vector{Bool}[[1, 1, 1, 0, 0, 0, …
    7 │   -0.18 eV  Vector{Bool}[[1, 1, 1, 0, 0, 0, …
    8 │   -0.18 eV  Vector{Bool}[[1, 1, 1, 0, 0, 0, …
  ⋮   │     ⋮                       ⋮
 1814 │ -0.1925 eV  Vector{Bool}[[0, 0, 0, 0, 0, 0, …
 1815 │  -0.195 eV  Vector{Bool}[[0, 0, 0, 0, 0, 0, …
 1816 │  -0.185 eV  Vector{Bool}[[0, 0, 0, 0, 0, 0, …
 1817 │ -0.1925 eV  Vector{Bool}[[0, 0, 0, 0, 0, 0, …
 1818 │  -0.195 eV  Vector{Bool}[[0, 0, 0, 0, 0, 0, …
 1819 │ -0.1925 eV  Vector{Bool}[[0, 0, 0, 0, 0, 0, …
 1820 │    -0.2 eV  Vector{Bool}[[0, 0, 0, 0, 0, 0, …
                                     1805 rows omitted, LatticeGasWalkers(LatticeWalker{1}, GenericLatticeHamiltonian{2, Quantity{Float64, 𝐋^2 𝐌 𝐓^-2, Unitful.FreeUnits{(eV,), 𝐋^2 𝐌 𝐓^-2, nothing}}}):
…
